%YAML 1.1
%TAG !u! tag:unity3d.com,2011:
--- !u!221 &22100000
AnimatorOverrideController:
  m_ObjectHideFlags: 0
  m_PrefabParentObject: {fileID: 0}
  m_PrefabInternal: {fileID: 0}
  m_Name: Enemy2Override
  m_Controller: {fileID: 9100000, guid: d032506729b22e04691247b7bed04339, type: 2}
  m_Clips:
  - m_OriginalClip: {fileID: 7400004, guid: 9edd1d19178369e4aa0da29f77bfc886, type: 3}
    m_OverrideClip: {fileID: 7400004, guid: f889e105ec8879b4184b7aefbfaca9b5, type: 3}
  - m_OriginalClip: {fileID: 7400006, guid: 9edd1d19178369e4aa0da29f77bfc886, type: 3}
    m_OverrideClip: {fileID: 7400006, guid: f889e105ec8879b4184b7aefbfaca9b5, type: 3}
  - m_OriginalClip: {fileID: 7400008, guid: 9edd1d19178369e4aa0da29f77bfc886, type: 3}
    m_OverrideClip: {fileID: 7400012, guid: f889e105ec8879b4184b7aefbfaca9b5, type: 3}
  - m_OriginalClip: {fileID: 7400010, guid: 9edd1d19178369e4aa0da29f77bfc886, type: 3}
    m_OverrideClip: {fileID: 7400024, guid: f889e105ec8879b4184b7aefbfaca9b5, type: 3}
  - m_OriginalClip: {fileID: 7400022, guid: 9edd1d19178369e4aa0da29f77bfc886, type: 3}
    m_OverrideClip: {fileID: 7400026, guid: f889e105ec8879b4184b7aefbfaca9b5, type: 3}
  - m_OriginalClip: {fileID: 7400020, guid: 9edd1d19178369e4aa0da29f77bfc886, type: 3}
    m_OverrideClip: {fileID: 7400020, guid: f889e105ec8879b4184b7aefbfaca9b5, type: 3}
  - m_OriginalClip: {fileID: 7400000, guid: 9edd1d19178369e4aa0da29f77bfc886, type: 3}
    m_OverrideClip: {fileID: 7400000, guid: f889e105ec8879b4184b7aefbfaca9b5, type: 3}
  - m_OriginalClip: {fileID: 7400012, guid: 9edd1d19178369e4aa0da29f77bfc886, type: 3}
    m_OverrideClip: {fileID: 7400014, guid: f889e105ec8879b4184b7aefbfaca9b5, type: 3}
  - m_OriginalClip: {fileID: 7400002, guid: 9edd1d19178369e4aa0da29f77bfc886, type: 3}
    m_OverrideClip: {fileID: 7400002, guid: f889e105ec8879b4184b7aefbfaca9b5, type: 3}
  - m_OriginalClip: {fileID: 7400024, guid: 9edd1d19178369e4aa0da29f77bfc886, type: 3}
    m_OverrideClip: {fileID: 7400028, guid: f889e105ec8879b4184b7aefbfaca9b5, type: 3}
  - m_OriginalClip: {fileID: 7400026, guid: 9edd1d19178369e4aa0da29f77bfc886, type: 3}
    m_OverrideClip: {fileID: 7400030, guid: f889e105ec8879b4184b7aefbfaca9b5, type: 3}
